826
791
47
681
859
290
285
982
71
674
50
261
386
694
269
446
202
64
496
4
397
358
571
652
441
986
725
530
706
454
339
532
597
738
565
456
381
202
438
452
876
841
713
615
535
334
413
90
399
909
446
148
619
369
800
60
707
525
943
413
331
282
298
928
372
863
736
753
418
527
206
294
368
271
909
255
606
322
697
357
583
143
505
202
864
657
615
572
535
558
985
866
192
635
147
564
851
235
670
269
762
876
563
482
499
825
738
105
499
435
814
83
931
671
637
147
329
252
719
864
162
57
82
706
692
581
623
895
817
293
164
931
169
728
414
668
905
504
126
404
291
292
839
222
964
477
722
645
81
441
861
596
850
943
302
895
877
925
790
694
570
955
625
91
35
391
112
292
895
238
696
187
882
888
761
846
717
483
843
798
277
704
394
127
0
49
374
877
326
165
923
897
472
548
340
859
292
452
151
187
42
199
374
925
439
136
123
156
619
967
955
896
23
701
376
23
102
750
252
429
267
175
678
91
76
18
950
368
823
453
555
865
5
282
790
444
418
266
601
389
233
908
638
256
961
366
632
64
116
236
845
736
764
875
179
840
245
482
560
68
935
467
934
292
101
76
737
519
342
690
261
927
950
899
536
911
265
168
327
733
756
524
821
520
399
1
712
645
483
272
65
770
92
999
63
193
428
152
65
770
842
326
698
792
577
234
55
194
754
383
279
510
907
453
383
659
454
95
656
289
368
721
411
812
73
826
5
501
978
70
623
172
748
673
316
325
259
372
871
365
107
151
228
366
604
611
25
410
706
33
51
426
755
462
238
180
289
596
33
619
666
8
792
767
682
108
92
293
832
316
659
939
819
887
306
423
850
683
185
908
717
588
335
824
50
925
356
691
521
389
311
188
397
455
955
431
915
399
725
748
67
736
687
886
975
345
661
825
29
846
85
98
434
420
922
837
346
630
880
867
19
543
407
768
998
714
552
914
466
629
14
533
717
701
420
692
47
81
869
428
280
954
526
66
727
800
255
73
782
136
292
153
31
52
921
30
118
825
296
936
806
310
822
523
363
242
567
762
675
436
542
307
743
420
374
822
572
629
247
354
117
891
507
149
943
781
531
414
606
179
350
413
841
524
288
556
118
856
319
794
644
861
453
739
634
827
561
206
809
808
561
278
700
68
779
995
849
310
409
808
489
112
573
682
636
861
239
107
717
910
901
714
123
354
453
757
534
15
964
695
823
877
973
875
945
753
871
147
415
632
307
257
96
880
939
733
741
530
840
811
440
93
525
564
799
330
321
685
345
637
732
521
514
58
396
812
163
619
959
578
252
266
187
348
498
127
433
239
657
625
402
450
70
279
14
870
610
687
907
955
325
640
828
191
698
225
3
861
196
314
791
448
932
979
797
430
458
582
670
467
208
424
917
278
704
283
500
314
971
760
621
648
400
450
839
450
675
195
663
871
509
806
672
442
785
821
872
243
403
894
63
963
671
980
594
375
264
446
689
587
206
662
235
958
112
426
760
139
621
423
363
483
230
35
925
367
856
149
963
611
396
26
927
67
6
521
442
622
967
483
561
174
145
796
132
258
575
245
397
548
668
112
31
250
147
308
970
355
458
933
319
854
959
246
921
317
767
715
292
734
198
853
260
695
650
745
953
577
990
703
125
10
815
157
261
315
817
231
22
275
516
341
481
475
587
402
144
706
469
436
793
19
290
53
715
292
798
20
869
140
75
994
151
243
503
412
558
321
995
580
948
511
274
430
338
213
184
482
920
654
919
713
673
209
118
388
501
917
761
370
57
836
716
208
79
572
972
637
245
319
570
193
830
196
623
168
409
160
3
329
814
922
394
839
131
513
580
632
782
341
354
839
177
422
400
609
994
724
598
239
44
168
433
874
364
408
395
126
568
398
455
734
672
850
574
803
715
154
787
497
847
493
336
376
915
88
985
910
813
584
501
209
752
286
435
469
695
830
595
615
580
402
350
252
604
276
407
319
782
194
816
629
687
505
357
955
945
343
865
758
927
718
967
31
5
403
852
52
585
447
667
518
202
369
122
806
997
530
478
779
76
294
760
116
151
118
71
97
813
288
207
740
6
527
771
11
282
624
415
219
423
83
737
625
804
212
784
802
742
262
933
818
908
694
286
412
164
357
861
977
997
420
69
4
947
840
367
581
816
783
801
592
218
890
569
22
454
353
824
196
967
758
367
876
804
653
640
320
363
501
297
360
921
718
716
221
558
436
802
727
571
955
319
141
198
888
515
652
594
340
201
561
450
920
789
606
573
429
926
288
282
575
1
556
293
69
777
203
857
931
282
780
239
601
921
789
842
437
793
788
129
994
349
931
914
491
537
840
920
815
480
555
390
481
111
35
903
888
238
760
171
873
541
410
826
814
199
668
603
345
456
84
339
158
15
606
649
552
798
921
719
278
476
109
112
587
496
15
827
87
127
351
960
20
761
786
835
313
455
790
658
263
875
349
773
890
955
422
795
753
696
514
384
172
976
496
112
472
511
291
559
990
642
871
11
756
658
198
69
465
988
79
728
215
428
854
458
384
276
253
489
972
119
873
497
447
369
961
272
232
252
183
223
247
55
586
3
713
136
72
178
476
151
258
692
931
112
150
667
741
755
509
65
226
382
914
26
104
875
298
688
128
481
263
375
888
849
378
953
985
802
131
462
305
742
506
588
206
656
256
299
763
765
365
341
499
631
367
603
507
665
292
987
499
907
714
739
109
444
693
94
246
176
908
903
270
766
491
477
774
99
128
537
864
845
879
364
477
598
319
984
264
963
971
115
871
685
854
332
129
899
778
727
76
687
982
346
453
825
175
580
925
304
117
141
149
348
857
626
947
177
962
563
492
285
30
715
970
884
47
451
136
826
530
212
865
512
910
670
338
86
250
615
742
720
756
891
68
614
870
367
143
832
930
635
118
960
703
440
197
750
244
333
928
126
897
793
639
807
816
329
245
66
944
987
786
52
231
207
666
453
574
809
637
505
797
107
817
500
900
14
602
144
699
883
270
596
676
261
756
844
942
1
911
886
341
49
291
924
256
957
377
831
119
366
688
268
474
505
768
374
872
722
870
571
605
492
520
634
754
276
478
48
629
741
287
322
791
578
246
399
535
975
230
6
342
270
274
816
776
42
542
0
117
764
923
74
256
443
60
362
719
891
411
701
632
698
23
775
276
270
175
163
245
757
170
939
28
444
107
156
839
649
508
956
413
431
382
22
875
443
384
946
334
147
647
318
845
23
94
473
645
621
637
242
378
807
182
758
251
289
914
90
291
774
398
704
206
133
78
81
576
815
27
262
962
27
580
808
402
26
281
47
647
918
289
378
77
471
136
329
113
403
771
404
177
522
460
383
655
539
816
583
354
196
845
316
575
777
476
977
804
110
24
803
28
665
181
458
137
670
139
602
425
910
6
602
784
466
338
439
5
506
22
711
702
219
380
277
997
856
606
801
966
630
956
347
296
138
805
785
160
944
387
585
206
745
539
343
211
877
782
569
384
157
632
438
728
12
716
725
869
674
878
187
305
835
886
953
325
691
90
485
987
829
70
546
574
609
889
137
839
23
58
575
532
691
13
261
703
81
986
924
756
217
112
413
404
998
718
729
42
160
566
381
989
988
927
915
949
816
404
788
192
463
715
724
154
81
985
857
162
324
134
270
541
598
35
945
596
753
26
990
913
592
372
254
580
651
521
529
820
926
670
12
389
737
736
895
818
74
104
333
750
238
603
643
836
991
940
785
744
966
775
10
910
499
616
490
151
138
371
971
64
393
335
805
131
423
700
949
497
804
282
247
395
238
890
231
229
830
16
325
148
144
335
58
643
952
900
794
442
624
117
858
17
452
663
500
876
715
450
725
871
84
325
266
674
567
498
903
398
866
229
898
10
916
957
6
220
209
800
662
833
270
872
203
722
535
703
950
602
505
676
474
942
1
92
616
920
942
872
670
809
453
569
171
369
878
177
942
87
330
956
273
600
829
828
674
716
883
977
319
741
653
145
683
6
237
651
926
532
523
597
341
328
518
864
50
396
394
992
835
724
300
460
676
129
288
702
198
524
679
869
265
332
14
300
690
603
303
969
487
179
918
180
507
436
45
557
184
439
901
19
515
202
832
543
683
472
245
881
996
925
750
613
609
116
265
652
72
569
621
911
100
891
92
607
327
137
517
863
928
418
234
795
972
66
338
656
539
583
889
887
508
992
853
470
460
118
122
884
39
95
796
139
986
888
99
313
377
968
176
657
738
410
452
711
829
790
719
720
725
608
607
586
952
812
56
765
283
530
649
674
625
797
166
611
685
265
276
414
233
452
71
971
214
523
34
395
665
753
115
743
714
75
329
18
887
737
783
522
267
433
197
892
582
363
503
268
980
779
34
565
583
106
888
149
981
923
545
999
28
12
742
94
87
71
113
327
160
248
849
427
33
398
671
616
761
174
884
93
305
918
658
240
376
547
741
358
822
638
357
850
651
451
297
90
522
410
417
34
658
619
461
44
17
132
660
131
658
896
224
315
166
883
907
543
782
0
253
604
639
962
806
642
413
103
732
287
865
150
321
876
121
782
920
138
266
580
269
276
476
494
943
642
729
850
537
511
850
790
467
841
752
625
483
165
729
216
804
946
366
125
822
839
259
742
977
525
674
247
153
150
93
96
145
174
946
682
685
149
825
504
990
577
129
474
95
858
690
899
805
408
377
979
247
636
74
576
514
748
175
667
251
268
764
396
442
62
430
479
563
255
983
554
185
113
380
280
323
422
531
480
830
908
812
429
545
886
5
411
634
181
78
885
801
194
633
596
609
64
75
172
319
411
78
856
876
810
136
199
232
20
32
414
280
844
843
177
82
201
588
716
734
19
602
887
213
235
483
174
651
559
699
323
970
129
179
846
940
668
397
172
688
781
939
968
977
134
498
59
335
86
776
421
105
730
309
671
317
792
197
969
703
896
292
673
26
471
871
318
139
621
490
179
402
781
500
380
916
998
439
251
84
215
25
542
297
686
565
615
478
762
936
182
659
228
207
37
51
431
355
543
52
197
722
454
979
574
186
895
572
626
498
9
193
875
903
491
561
468
106
40
230
42
574
241
622
133
278
673
916
985
568
968
183
291
775
162
865
961
409
790
587
907
151
133
783
54
624
696
522
82
736
752
124
662
994
98
148
624
123
64
610
692
33
793
335
160
307
552
121
68
342
61
975
493
546
110
547
170
807
421
252
895
174
728
910
520
178
58
144
301
474
106
993
859
899
328
19
558
881
493
626
575
906
954
69
452
416
968
622
575
390
226
823
916
306
733
788
484
143
284
785
617
391
131
477
642
459
848
201
692
341
179
268
599
485
689
51
902
9
25
829
751
603
652
667
909
737
455
745
880
740
531
850
483
14
679
125
825
527
678
518
221
858
138
820
343
827
224
597
188
249
427
940
853
431
607
114
169
415
860
401
507
743
251
342
757
282
467
934
810
146
452
383
356
942
555
51
121
779
649
310
29
428
250
234
859
209
700
28
976
560
430
835
655
33
177
764
316
645
699
478
143
503
861
851
446
416
902
567
196
903
877
577
683
479
163
543
689
215
923
665
776
705
501
783
739
678
548
407
675
599
885
170
102
98
21
900
866
276
468
414
531
697
343
215
177
858
758
218
74
33
883
202
739
736
985
830
767
885
589
442
484
826
613
939
924
986
191
142
262
659
557
794
709
252
361
886
111
119
104
185
504
339
387
243
428
724
425
195
610
14
989
446
840
602
737
116
941
929
259
555
940
168
349
649
420
710
887
531
181
343
68
38
35
455
633
463
180
59
658
142
425
647
588
618
602
678
734
895
607
345
450
547
865
152
549
638
862
436
521
396
780
590
434
167
397
419
630
577
478
288
71
256
287
12
874
241
690
960
136
297
658
587
196
523
739
745
513
953
182
35
701
314
625
487
481
22
907
463
952
385
751
23
641
390
387
867
632
77
828
120
374
486
707
571
361
798
668
875
752
850
910
453
516
887
293
349
909
200
812
213
937
915
589
931
306
976
798
290
54
978
410
780
816
470
703
178
268
372
405
372
222
667
178
91
554
471
440
815
23
253
29
960
168
970
891
826
298
42
468
352
20
231
485
837
701
188
367
321
560
772
46
135
439
224
226
345
47
18
160
70
623
541
30
792
863
274
970
162
316
439
514
688
670
351
877
723
540
244
396
100
368
442
587
159
18
165
504
417
184
17
487
807
910
870
951
774
144
274
936
812
713
802
500
735
154
378
810
46
974
206
146
343
1
86
854
371
251
359
789
787
728
276
947
638
146
898
764
642
524
700
454
237
855
307
324
361
37
134
407
11
693
905
706
46
991
561
769
595
272
558
734
0
187
681
990
685
932
755
328
456
807
134
46
14
793
370
375
830
857
134
194
902
40
900
300
383
813
69
330
437
980
65
789
167
746
780
852
678
887
532
487
46
667
533
61
812
255
788
643
112
923
189
366
315
441
18
50
255
88
381
692
68
446
834
235
544
966
439
223
853
972
62
251
991
595
312
803
850
453
798
315
376
987
33
43
429
52
93
36
492
474
80
560
272
914
147
817
880
938
392
85
910
454
337
253
49
1
409
251
454
207
566
182
547
952
225
976
4
671
12
496
145
92
408
770
359
907
587
239
845
979
677
108
433
14
361
834
367
122
85
822
330
4
356
877
956
934
205
312
605
217
160
102
661
568
872
20
475
459
612
672
790
289
780
575
303
494
409
670
616
847
844
946
851
201
175
159
487
380
471
92
949
631
194
963
551
67
983
378
878
947
50
669
236
831
596
891
325
6
914
941
205
758
240
408
311
767
567
798
500
390
242
801
373
437
764
276
856
100
654
86
47
704
107
636
535
704
527
212
710
441
506
915
552
98
675
215
865
242
366
365
984
608
519
357
397
283
985
253
735
639
692
783
343
799
419
231
503
298
443
565
740
301
832
644
399
507
859
265
101
225
982
85
834
501
794
583
137
779
837
872
418
529
7
114
680
778
345
184
77
140
749
169
442
934
813
841
441
24
458
543
602
793
628
788
646
775
371
783
554
560
656
325
441
15
439
122
794
136
306
871
276
407
392
70
341
557
912
135
933
722
678
535
515
658
323
162
433
47
297
340
607
305
665
49
321
104
523
115
240
181
338
868
588
82
939
282
639
203
417
572
925
447
460
793
105
135
307
891
182
604
231
142
910
896
543
231
352
66
698
944
247
36
812
187
470
103
821
109
306
590
33
584
37
845
377
495
981
36
386
515
640
969
657
550
217
200
133
569
618
831
865
865
219
677
405
689
133
578
150
439
169
536
375
558
381
104
53
362
140
791
878
781
760
535
683
977
88
817
898
706
648
763
924
220
793
681
909
926
259
412
717
428
948
93
987
329
549
392
44
690
184
922
823
296
809
858
626
249
675
876
956
676
640
232
248
433
913
157
711
172
569
428
601
869
873
940
199
775
332
243
817
868
517
640
517
326
850
495
928
526
371
236
554
363
468
802
148
381
311
859
905
233
640
858
102
865
798
301
640
483
896
457
703
413
449
220
92
300
67
20
178
439
256
732
802
76
886
951
809
197
162
714
782
802
573
885
20
723
538
660
206
787
118
262
200
919
834
644
219
902
16
397
341
624
129
495
700
367
798
509
917
961
576
699
115
501
584
135
224
475
148
783
262
618
45
814
537
879
459
757
133
475
506
826
452
988
322
152
355
472
14
272
785
942
972
901
443
908
388
667
735
888
802
997
506
199
812
396
431
623
505
564
450
11
391
902
999
713
55
707
537
421
979
323
363
303
576
158
564
316
825
299
205
980
297
63
179
461
811
610
84
316
175
534
680
918
437
31
983
844
738
520
617
718
843
980
373
419
490
937
88
315
237
293
647
886
708
179
347
520
789
783
836
316
Rango cubeta 0 de 0 a 249
Rango cubeta 1 de 250 a 499
Rango cubeta 2 de 500 a 749
Rango cubeta 3 de 750 a 999
La cubeta contiene 853 elementos
La cubeta contiene 874 elementos
La cubeta contiene 842 elementos
La cubeta contiene 931 elementos

 Cubeta con rango 0 a 249 termino de ordenar
 Cubeta con rango 250 a 499 termino de ordenar
 Cubeta con rango 500 a 749 termino de ordenar
 Cubeta con rango 750 a 999 termino de ordenar249
0
0
0
0
1
1
1
1
1
1
3
3
3
4
4
4
4
5
5
5
5
5
6
6
6
6
6
6
6
7
8
9
9
10
10
10
11
11
11
11
12
12
12
12
12
13
14
14
14
14
14
14
14
14
14
15
15
15
15
16
16
17
17
17
18
18
18
18
18
19
19
19
19
19
20
20
20
20
20
20
20
21
22
22
22
22
22
23
23
23
23
23
23
23
24
24
25
25
25
26
26
26
26
26
27
27
28
28
28
28
29
29
29
30
30
30
31
31
31
31
32
33
33
33
33
33
33
33
33
34
34
34
35
35
35
35
35
35
36
36
36
37
37
37
38
39
40
40
42
42
42
42
42
43
44
44
44
45
45
46
46
46
46
46
47
47
47
47
47
47
47
48
49
49
49
49
50
50
50
50
50
51
51
51
51
52
52
52
52
52
53
53
54
54
55
55
55
56
57
57
58
58
58
58
59
59
60
60
61
61
62
62
63
63
63
64
64
64
64
64
65
65
65
65
66
66
66
66
67
67
67
67
68
68
68
68
68
68
69
69
69
69
69
70
70
70
70
70
71
71
71
71
71
72
72
73
73
74
74
74
74
75
75
75
76
76
76
76
76
77
77
77
78
78
78
79
79
80
81
81
81
81
81
82
82
82
82
83
83
84
84
84
84
85
85
85
85
86
86
86
86
87
87
87
88
88
88
88
90
90
90
90
91
91
91
92
92
92
92
92
92
92
93
93
93
93
93
94
94
94
95
95
95
96
96
97
98
98
98
98
99
99
100
100
100
101
101
102
102
102
102
103
103
104
104
104
104
104
105
105
105
106
106
106
107
107
107
107
107
108
108
109
109
109
110
110
111
111
112
112
112
112
112
112
112
112
112
113
113
113
114
114
115
115
115
115
116
116
116
116
117
117
117
117
118
118
118
118
118
118
118
119
119
119
120
121
121
121
122
122
122
122
123
123
123
124
125
125
125
126
126
126
127
127
127
128
128
129
129
129
129
129
129
131
131
131
131
131
132
132
133
133
133
133
133
133
134
134
134
134
134
135
135
135
135
136
136
136
136
136
136
136
136
137
137
137
137
138
138
138
138
139
139
139
139
140
140
140
141
141
142
142
142
143
143
143
143
144
144
144
144
144
145
145
145
145
146
146
146
147
147
147
147
147
147
148
148
148
148
148
149
149
149
149
149
150
150
150
150
151
151
151
151
151
151
151
152
152
152
153
153
154
154
154
156
156
157
157
157
158
158
159
159
160
160
160
160
160
160
160
162
162
162
162
162
162
163
163
163
164
164
165
165
165
166
166
167
167
168
168
168
168
168
169
169
169
169
170
170
170
171
171
172
172
172
172
172
174
174
174
174
174
175
175
175
175
175
175
176
176
177
177
177
177
177
177
177
178
178
178
178
178
179
179
179
179
179
179
179
179
180
180
180
181
181
181
181
182
182
182
182
182
183
183
184
184
184
184
184
185
185
185
186
187
187
187
187
187
187
188
188
188
189
191
191
192
192
193
193
193
194
194
194
194
194
195
195
196
196
196
196
196
196
197
197
197
197
197
198
198
198
198
199
199
199
199
199
200
200
200
201
201
201
201
202
202
202
202
202
202
203
203
203
205
205
205
206
206
206
206
206
206
206
206
207
207
207
207
208
208
209
209
209
209
211
212
212
212
213
213
213
214
215
215
215
215
215
216
217
217
217
218
218
219
219
219
219
220
220
220
221
221
222
222
223
223
224
224
224
224
225
225
225
226
226
226
228
228
229
229
230
230
230
231
231
231
231
231
231
231
232
232
232
233
233
233
234
234
234
235
235
235
235
236
236
236
237
237
237
238
238
238
238
238
239
239
239
239
239
240
240
240
241
241
242
242
242
242
243
243
243
243
244
244
245
245
245
245
245
245
246
246
246
247
247
247
247
247
247
248
248
249
499
250
250
250
251
251
251
251
251
251
251
252
252
252
252
252
252
252
253
253
253
253
253
254
255
255
255
255
255
256
256
256
256
256
256
257
258
258
259
259
259
259
260
261
261
261
261
261
262
262
262
262
262
263
263
264
264
265
265
265
265
265
266
266
266
266
267
267
268
268
268
268
268
269
269
269
270
270
270
270
270
270
271
272
272
272
272
272
273
274
274
274
274
275
276
276
276
276
276
276
276
276
276
276
277
277
278
278
278
278
279
279
280
280
280
281
282
282
282
282
282
282
282
282
283
283
283
284
285
285
286
286
287
287
287
288
288
288
288
288
289
289
289
289
289
290
290
290
291
291
291
291
291
292
292
292
292
292
292
292
292
292
293
293
293
293
293
294
294
296
296
296
297
297
297
297
297
297
298
298
298
298
299
299
300
300
300
300
301
301
301
302
303
303
303
304
305
305
305
305
306
306
306
306
306
307
307
307
307
307
308
309
310
310
310
311
311
311
312
312
313
313
314
314
314
315
315
315
315
315
316
316
316
316
316
316
316
316
317
317
318
318
319
319
319
319
319
319
319
319
320
321
321
321
321
321
322
322
322
323
323
323
323
324
324
325
325
325
325
325
325
325
326
326
326
327
327
327
328
328
328
329
329
329
329
329
329
330
330
330
330
331
332
332
332
333
333
334
334
335
335
335
335
335
336
337
338
338
338
338
338
339
339
339
340
340
340
341
341
341
341
341
341
341
341
342
342
342
342
343
343
343
343
343
343
343
345
345
345
345
345
345
346
346
347
347
348
348
349
349
349
349
350
350
351
351
352
352
353
354
354
354
354
355
355
355
356
356
356
357
357
357
357
357
358
358
359
359
360
361
361
361
361
362
362
363
363
363
363
363
363
364
364
365
365
365
366
366
366
366
366
366
367
367
367
367
367
367
367
367
368
368
368
368
369
369
369
369
370
370
371
371
371
371
372
372
372
372
372
373
373
374
374
374
374
374
375
375
375
375
376
376
376
376
377
377
377
377
378
378
378
378
378
380
380
380
380
381
381
381
381
381
382
382
383
383
383
383
383
384
384
384
384
385
386
386
387
387
387
388
388
389
389
389
390
390
390
390
391
391
391
392
392
392
393
394
394
394
395
395
395
396
396
396
396
396
396
396
397
397
397
397
397
397
397
398
398
398
398
399
399
399
399
399
400
400
401
402
402
402
402
402
403
403
403
404
404
404
404
405
405
407
407
407
407
407
408
408
408
408
409
409
409
409
409
410
410
410
410
410
411
411
411
411
412
412
412
413
413
413
413
413
413
413
414
414
414
414
414
415
415
415
416
416
417
417
417
418
418
418
418
419
419
419
420
420
420
420
420
421
421
421
422
422
422
423
423
423
423
424
425
425
425
426
426
427
427
428
428
428
428
428
428
428
429
429
429
429
430
430
430
430
431
431
431
431
431
433
433
433
433
433
433
434
434
435
435
436
436
436
436
436
437
437
437
437
438
438
439
439
439
439
439
439
439
439
439
439
440
440
440
441
441
441
441
441
441
442
442
442
442
442
442
442
443
443
443
443
444
444
444
446
446
446
446
446
446
447
447
447
448
449
450
450
450
450
450
450
450
451
451
452
452
452
452
452
452
452
452
453
453
453
453
453
453
453
453
453
454
454
454
454
454
454
454
455
455
455
455
455
456
456
456
457
458
458
458
458
458
459
459
459
460
460
460
460
461
461
462
462
463
463
463
465
466
466
467
467
467
467
468
468
468
468
469
469
470
470
470
471
471
471
471
472
472
472
472
473
474
474
474
474
474
475
475
475
475
476
476
476
476
477
477
477
477
478
478
478
478
478
479
479
480
480
481
481
481
481
482
482
482
483
483
483
483
483
483
483
483
484
484
485
485
485
486
487
487
487
487
487
489
489
490
490
490
491
491
491
492
492
492
493
493
493
494
494
495
495
495
496
496
496
496
497
497
497
498
498
498
498
499
499
499
499
749
500
500
500
500
500
500
501
501
501
501
501
501
501
503
503
503
503
504
504
504
504
505
505
505
505
505
505
506
506
506
506
506
507
507
507
507
507
508
508
509
509
509
510
511
511
511
512
513
513
514
514
514
514
515
515
515
515
516
516
517
517
517
518
518
518
519
519
520
520
520
520
520
521
521
521
521
521
522
522
522
522
523
523
523
523
523
524
524
524
524
525
525
525
526
526
527
527
527
527
529
529
530
530
530
530
530
531
531
531
531
531
532
532
532
532
533
533
534
534
535
535
535
535
535
535
535
536
536
537
537
537
537
537
538
539
539
539
540
541
541
541
542
542
542
543
543
543
543
543
543
543
544
545
545
546
546
547
547
547
547
548
548
548
549
549
550
551
552
552
552
552
554
554
554
554
555
555
555
555
556
556
557
557
557
558
558
558
558
558
558
559
559
560
560
560
560
560
561
561
561
561
561
561
563
563
563
564
564
564
564
565
565
565
565
566
566
567
567
567
567
568
568
568
569
569
569
569
569
569
570
570
571
571
571
571
572
572
572
572
572
573
573
573
574
574
574
574
574
575
575
575
575
575
575
575
576
576
576
576
577
577
577
577
577
578
578
578
580
580
580
580
580
580
580
581
581
582
582
583
583
583
583
583
584
584
584
585
585
586
586
587
587
587
587
587
587
587
588
588
588
588
588
589
589
590
590
592
592
594
594
595
595
595
596
596
596
596
596
596
597
597
597
598
598
598
599
599
600
601
601
601
602
602
602
602
602
602
602
602
603
603
603
603
603
604
604
604
604
605
605
606
606
606
606
606
607
607
607
607
607
608
608
609
609
609
609
610
610
610
610
611
611
611
612
613
613
614
615
615
615
615
615
616
616
616
616
617
617
618
618
618
619
619
619
619
619
621
621
621
621
621
622
622
622
623
623
623
623
623
624
624
624
624
624
625
625
625
625
625
625
626
626
626
626
628
629
629
629
629
630
630
630
631
631
632
632
632
632
632
632
633
633
634
634
634
635
635
636
636
636
637
637
637
637
637
638
638
638
638
639
639
639
639
640
640
640
640
640
640
640
641
642
642
642
642
642
643
643
643
644
644
644
645
645
645
645
646
647
647
647
647
648
648
649
649
649
649
649
650
651
651
651
651
652
652
652
652
653
653
654
654
655
655
656
656
656
656
657
657
657
657
658
658
658
658
658
658
658
658
659
659
659
659
660
660
661
661
662
662
662
663
663
665
665
665
665
665
666
666
667
667
667
667
667
667
667
668
668
668
668
668
669
670
670
670
670
670
670
670
670
671
671
671
671
671
672
672
672
673
673
673
673
674
674
674
674
674
674
675
675
675
675
675
676
676
676
676
677
677
678
678
678
678
678
678
679
679
680
680
681
681
681
682
682
682
683
683
683
683
683
685
685
685
685
685
686
687
687
687
687
688
688
688
688
689
689
689
689
690
690
690
690
690
691
691
691
692
692
692
692
692
692
692
693
693
694
694
694
695
695
695
696
696
696
697
697
698
698
698
698
699
699
699
699
700
700
700
700
700
701
701
701
701
701
702
702
703
703
703
703
703
703
703
704
704
704
704
704
705
706
706
706
706
706
706
707
707
707
708
709
710
710
711
711
711
712
713
713
713
713
713
714
714
714
714
714
715
715
715
715
715
715
716
716
716
716
716
717
717
717
717
717
718
718
718
718
719
719
719
719
720
720
721
722
722
722
722
722
723
723
724
724
724
724
725
725
725
725
725
727
727
727
728
728
728
728
728
729
729
729
730
732
732
732
733
733
733
734
734
734
734
734
735
735
735
736
736
736
736
736
736
737
737
737
737
737
737
738
738
738
738
739
739
739
739
739
740
740
740
741
741
741
741
741
742
742
742
742
742
743
743
743
744
745
745
745
745
746
748
748
748
999
750
750
750
750
751
751
752
752
752
752
753
753
753
753
753
754
754
755
755
755
756
756
756
756
756
757
757
757
757
758
758
758
758
758
760
760
760
760
760
761
761
761
761
762
762
762
763
763
764
764
764
764
764
764
765
765
766
767
767
767
767
768
768
769
770
770
770
771
771
772
773
774
774
774
775
775
775
775
775
776
776
776
777
777
778
778
779
779
779
779
779
780
780
780
780
780
781
781
781
781
782
782
782
782
782
782
782
783
783
783
783
783
783
783
783
784
784
785
785
785
785
785
786
786
787
787
787
788
788
788
788
788
789
789
789
789
789
790
790
790
790
790
790
790
791
791
791
791
792
792
792
792
793
793
793
793
793
793
793
793
794
794
794
794
794
795
795
796
796
797
797
797
798
798
798
798
798
798
798
798
798
799
799
800
800
800
801
801
801
801
802
802
802
802
802
802
802
802
803
803
803
804
804
804
804
804
805
805
805
806
806
806
806
807
807
807
807
807
808
808
808
809
809
809
809
809
810
810
810
811
811
812
812
812
812
812
812
812
812
812
813
813
813
813
814
814
814
814
815
815
815
815
816
816
816
816
816
816
816
817
817
817
817
817
817
818
818
819
820
820
821
821
821
822
822
822
822
822
823
823
823
823
824
824
825
825
825
825
825
825
825
826
826
826
826
826
826
826
827
827
827
828
828
828
829
829
829
829
830
830
830
830
830
830
831
831
831
832
832
832
832
833
834
834
834
834
835
835
835
835
836
836
836
837
837
837
839
839
839
839
839
839
839
840
840
840
840
840
841
841
841
841
842
842
843
843
843
844
844
844
844
845
845
845
845
845
845
846
846
846
847
847
848
849
849
849
850
850
850
850
850
850
850
850
850
850
851
851
851
852
852
853
853
853
853
854
854
854
854
855
856
856
856
856
856
857
857
857
857
858
858
858
858
858
858
859
859
859
859
859
859
860
861
861
861
861
861
861
862
863
863
863
864
864
864
864
865
865
865
865
865
865
865
865
865
865
866
866
866
867
867
868
868
869
869
869
869
869
870
870
870
870
871
871
871
871
871
871
871
871
872
872
872
872
872
872
873
873
873
874
874
875
875
875
875
875
875
875
876
876
876
876
876
876
876
877
877
877
877
877
877
877
878
878
878
878
879
879
880
880
880
880
881
881
882
883
883
883
883
884
884
884
885
885
885
885
886
886
886
886
886
886
886
887
887
887
887
887
887
887
888
888
888
888
888
888
888
889
889
890
890
890
891
891
891
891
891
891
891
892
894
895
895
895
895
895
895
895
896
896
896
896
896
897
897
898
898
898
899
899
899
899
900
900
900
900
901
901
901
902
902
902
902
902
903
903
903
903
903
905
905
905
906
907
907
907
907
907
907
907
908
908
908
908
908
908
909
909
909
909
909
910
910
910
910
910
910
910
910
910
910
911
911
911
912
913
913
914
914
914
914
914
914
915
915
915
915
915
916
916
916
916
917
917
917
918
918
918
918
919
919
920
920
920
920
920
921
921
921
921
921
922
922
922
923
923
923
923
923
924
924
924
924
925
925
925
925
925
925
925
926
926
926
926
927
927
927
927
928
928
928
928
929
930
931
931
931
931
931
931
932
932
933
933
933
934
934
934
934
935
936
936
936
937
937
938
939
939
939
939
939
939
940
940
940
940
940
941
941
942
942
942
942
942
942
943
943
943
943
944
944
944
945
945
945
946
946
946
946
947
947
947
947
948
948
949
949
949
950
950
950
951
951
952
952
952
952
953
953
953
953
954
954
955
955
955
955
955
955
955
956
956
956
956
956
957
957
958
959
959
960
960
960
960
961
961
961
961
962
962
962
963
963
963
963
964
964
966
966
966
967
967
967
967
968
968
968
968
969
969
969
970
970
970
970
970
971
971
971
971
972
972
972
972
972
973
974
975
975
975
976
976
976
976
977
977
977
977
977
977
978
978
979
979
979
979
979
980
980
980
980
980
981
981
982
982
982
983
983
983
984
984
985
985
985
985
985
985
985
986
986
986
986
987
987
987
987
987
988
988
988
989
989
990
990
990
990
990
991
991
991
992
992
993
994
994
994
994
995
995
996
997
997
997
997
998
998
998
999
999
